[
  {
    "name": "P1",
    "description": "PM Value (Check Luftdata for document)",
    "definition": "-"
  },
  {
    "name": "P2",
    "description": "PM Value (Check Luftdata for document)",
    "definition": "-"
  }
]