[
{
    "name": "eBike1",
    "description": "Electric Bike #1 (i_city project)",
    "properties": {
        "vin": "eBike20131126003c"
    }
},
{
    "name": "eBike2",
    "description": "Electric Bike #2 (i_city project)",
    "properties": {
        "vin": "eBike201209280029"
    }
},
{
    "name": "eBike0C",
    "description": "Electric Bike #0C (i_city project)",
    "properties": {
        "vin": "eBike20131107003d"
    }
},
{
    "name": "eBike0D",
    "description": "Electric Bike #0D (i_city project)",
    "properties": {
        "vin": "eBike201311270017"
    }
},
{
    "name": "Garmin Smart Watch fenix 5X",
    "description": "Garmin Multisport GPS Watch for measure health of ebike user in i_city project",
    "properties": {
        "Brand": "Garmin",
        "UnitID" : "3952924420",
        "ProductID" : "2604",
        "Sensors" : " GPS/GLONASS/wrist heart rate monitor/Barometric altimeter/Compass/Gyroscope/Accelerometer/Thermometer"	
    }
}
]