{
    "name": "PV potential nominal power",
    "description": "Datastream for recording PV potential nominal power",
    "observationType": "http://www.opengis.net/def/observationType/OGC-OM/2.0/OM_Measurement",
    "Observations": [
      {
        "phenomenonTime": "2020-08-01T00:00:00.000Z",
        "resultTime": "2020-08-01T00:00:00.000Z",
        "result": "2",
        "@iot.id": 34,
        "@iot.selfLink": "http://193.196.138.56/musithings/v1.0/Observations(34)"
      }
    ],
    "unitOfMeasurement": {
      "name": "kilowatt peak",
      "symbol": "kWp",
      "definition": "https://en.wikipedia.org/wiki/Nominal_power_(photovoltaic)"
    }
}