[
    {
        "name": "DEBW_LOD2_3609",
        "description": "A building in GW area DEBW_LOD2_3609",
        "properties": {
            "surface_gml_id": "DEBW_LOD2_3609_7cfbd1d5-41d9-4483-81ea-c6f7d8f9ba94",
            "building_gml_id": "DEBW_LOD2_3609",
            "BuildingSurface_Hash": "367137508",
            "individual_or_multiple_buildings": "individual",
            "area": "Gruenbuehl"
        }
    },
    {
        "name": "DEBW_LOD2_930",
        "description": "A building in GW area DEBW_LOD2_930",
        "properties": {
            "surface_gml_id": "DEBW_LOD2_930_99e02926-a7bf-4573-87a1-30ee41fe1599",
            "building_gml_id": "DEBW_LOD2_930",
            "BuildingSurface_Hash": "279185432",
            "individual_or_multiple_buildings": "individual",
            "area": "Gruenbuehl"
        }
    },
    {
        "name": "DEBW_LOD2_1005132",
        "description": "A building in GW area DEBW_LOD2_1005132",
        "properties": {
            "surface_gml_id": "DEBW_LOD2_1005132_6ec25322-82b8-402b-9618-931d7be6386a",
            "building_gml_id": "DEBW_LOD2_1005132",
            "BuildingSurface_Hash": "1278794482",
            "individual_or_multiple_buildings": "individual",
            "area": "Gruenbuehl"
        }
    },
    {
        "name": "DEBW_LOD2_1003632",
        "description": "A building in GW area DEBW_LOD2_1003632",
        "properties": {
            "surface_gml_id": "DEBW_LOD2_1003632_7c0fb0fe-0508-4f0c-813d-60e26dd5c052",
            "building_gml_id": "DEBW_LOD2_1003632",
            "BuildingSurface_Hash": "175185651",
            "individual_or_multiple_buildings": "individual",
            "area": "Gruenbuehl"
        }
    },
    {
        "name": "DEBW_LOD2_1003633",
        "description": "A building in GW area DEBW_LOD2_1003633",
        "properties": {
            "surface_gml_id": "DEBW_LOD2_1003633_44666d81-1abe-43c3-85ac-a1a7dd4f5601",
            "building_gml_id": "DEBW_LOD2_1003633",
            "BuildingSurface_Hash": "783391393",
            "individual_or_multiple_buildings": "individual",
            "area": "Gruenbuehl"
        }
    },
    {
        "name": "DEBW_LOD2_4012",
        "description": "A building in GW area DEBW_LOD2_4012",
        "properties": {
            "surface_gml_id": "DEBW_LOD2_4012_f556e7ee-bd6d-4388-af97-6ddfe6bcc6da",
            "building_gml_id": "DEBW_LOD2_4012",
            "BuildingSurface_Hash": "571676925",
            "individual_or_multiple_buildings": "individual",
            "area": "Gruenbuehl"
        }
    },
    {
        "name": "DEBW_LOD2_1003631",
        "description": "A building in GW area DEBW_LOD2_1003631",
        "properties": {
            "surface_gml_id": "DEBW_LOD2_1003631_0c39225b-4a5e-4471-885a-fe894c5ab223",
            "building_gml_id": "DEBW_LOD2_1003631",
            "BuildingSurface_Hash": "669099995",
            "individual_or_multiple_buildings": "individual",
            "area": "Gruenbuehl"
        }
    },
    {
        "name": "DEBW_LOD2_1022",
        "description": "A building in GW area DEBW_LOD2_1022",
        "properties": {
            "surface_gml_id": "DEBW_LOD2_1022_c4b4f442-22e6-474c-a771-6d558e65aa6d",
            "building_gml_id": "DEBW_LOD2_1022",
            "BuildingSurface_Hash": "1165841612",
            "individual_or_multiple_buildings": "individual",
            "area": "Gruenbuehl"
        }
    },
    {
        "name": "DEBW_LOD2_2091",
        "description": "A building in GW area DEBW_LOD2_2091",
        "properties": {
            "surface_gml_id": "DEBW_LOD2_2091_d0afdd26-ff62-4d91-b780-e77b410c756d",
            "building_gml_id": "DEBW_LOD2_2091",
            "BuildingSurface_Hash": "885962767",
            "individual_or_multiple_buildings": "individual",
            "area": "Gruenbuehl"
        }
    },
    {
        "name": "DEBW_LOD2_1003627",
        "description": "A building in GW area DEBW_LOD2_1003627",
        "properties": {
            "surface_gml_id": "DEBW_LOD2_1003627_a3257a13-8cb2-4d54-a743-c40173e9d135",
            "building_gml_id": "DEBW_LOD2_1003627",
            "BuildingSurface_Hash": "402300162",
            "individual_or_multiple_buildings": "individual",
            "area": "Gruenbuehl"
        }
    },
    {
        "name": "DEBW_LOD2_1003626",
        "description": "A building in GW area DEBW_LOD2_1003626",
        "properties": {
            "surface_gml_id": "DEBW_LOD2_1003626_a6faf4c7-b2e1-413a-8a30-460be370dd3a",
            "building_gml_id": "DEBW_LOD2_1003626",
            "BuildingSurface_Hash": "54049290",
            "individual_or_multiple_buildings": "individual",
            "area": "Gruenbuehl"
        }
    },
    {
        "name": "DEBW_LOD2_210689",
        "description": "A building in GW area DEBW_LOD2_210689",
        "properties": {
            "surface_gml_id": "DEBW_LOD2_210689_3b426773-7fa6-4d47-9714-c8ca0197e6da",
            "building_gml_id": "DEBW_LOD2_210689",
            "BuildingSurface_Hash": "1143201228",
            "individual_or_multiple_buildings": "individual",
            "area": "Gruenbuehl"
        }
    },
    {
        "name": "DEBW_LOD2_3611",
        "description": "A building in GW area DEBW_LOD2_3611",
        "properties": {
            "surface_gml_id": "DEBW_LOD2_3611_977f84ec-51db-47f6-be94-e067cf0b215e",
            "building_gml_id": "DEBW_LOD2_3611",
            "BuildingSurface_Hash": "1668503510",
            "individual_or_multiple_buildings": "individual",
            "area": "Gruenbuehl"
        }
    },
    {
        "name": "DEBW_LOD2_3618",
        "description": "A building in GW area DEBW_LOD2_3618",
        "properties": {
            "surface_gml_id": "DEBW_LOD2_3618_5cd4ed98-b22a-4a3d-b660-e4be1d4855ba",
            "building_gml_id": "DEBW_LOD2_3618",
            "BuildingSurface_Hash": "1288144937",
            "individual_or_multiple_buildings": "individual",
            "area": "Gruenbuehl"
        }
    },
    {
        "name": "DEBW_LOD2_2526",
        "description": "A building in GW area DEBW_LOD2_2526",
        "properties": {
            "surface_gml_id": "DEBW_LOD2_2526_9d264b09-fcaa-4c5f-84c8-48d749295143",
            "building_gml_id": "DEBW_LOD2_2526",
            "BuildingSurface_Hash": "1268011695",
            "individual_or_multiple_buildings": "individual",
            "area": "Gruenbuehl"
        }
    },
    {
        "name": "DEBW_LOD2_2768",
        "description": "A building in GW area DEBW_LOD2_2768",
        "properties": {
            "surface_gml_id": "DEBW_LOD2_2768_0a2a65a6-043e-4cb4-b0c9-ea8e19a0ce9a",
            "building_gml_id": "DEBW_LOD2_2768",
            "BuildingSurface_Hash": "195165774",
            "individual_or_multiple_buildings": "individual",
            "area": "Gruenbuehl"
        }
    },
    {
        "name": "DEBW_LOD2_2768",
        "description": "A building in GW area DEBW_LOD2_2768",
        "properties": {
            "surface_gml_id": "DEBW_LOD2_2768_a4c02d19-9c17-489d-93a3-9d4ca4196bc9",
            "building_gml_id": "DEBW_LOD2_2768",
            "BuildingSurface_Hash": "270154439",
            "individual_or_multiple_buildings": "individual",
            "area": "Gruenbuehl"
        }
    },
    {
        "name": "DEBW_LOD2_2769",
        "description": "A building in GW area DEBW_LOD2_2769",
        "properties": {
            "surface_gml_id": "DEBW_LOD2_2769_39a04531-2a08-442e-93d9-dae43dd41fae",
            "building_gml_id": "DEBW_LOD2_2769",
            "BuildingSurface_Hash": "1861851613",
            "individual_or_multiple_buildings": "individual",
            "area": "Gruenbuehl"
        }
    },
    {
        "name": "DEBW_LOD2_2769",
        "description": "A building in GW area DEBW_LOD2_2769",
        "properties": {
            "surface_gml_id": "DEBW_LOD2_2769_665a0c1b-577e-4fbb-8c17-bd0dea1c274a",
            "building_gml_id": "DEBW_LOD2_2769",
            "BuildingSurface_Hash": "295063023",
            "individual_or_multiple_buildings": "individual",
            "area": "Gruenbuehl"
        }
    },
    {
        "name": "DEBW_LOD2_2088",
        "description": "A building in GW area DEBW_LOD2_2088",
        "properties": {
            "surface_gml_id": "DEBW_LOD2_2088_7f72f51f-4aec-4745-a088-0272f38ad6d0",
            "building_gml_id": "DEBW_LOD2_2088",
            "BuildingSurface_Hash": "1859175221",
            "individual_or_multiple_buildings": "individual",
            "area": "Gruenbuehl"
        }
    },
    {
        "name": "DEBW_LOD2_2088",
        "description": "A building in GW area DEBW_LOD2_2088",
        "properties": {
            "surface_gml_id": "DEBW_LOD2_2088_fd63c92f-0a38-4a7a-9b3a-c6ca819eb700",
            "building_gml_id": "DEBW_LOD2_2088",
            "BuildingSurface_Hash": "2076467119",
            "individual_or_multiple_buildings": "individual",
            "area": "Gruenbuehl"
        }
    },
    {
        "name": "DEBW_LOD2_223759",
        "description": "A building in GW area DEBW_LOD2_223759",
        "properties": {
            "surface_gml_id": "DEBW_LOD2_223759_485fa22d-9db4-49ee-a0c7-11c2b4053ab5",
            "building_gml_id": "DEBW_LOD2_223759",
            "BuildingSurface_Hash": "550338801",
            "individual_or_multiple_buildings": "individual",
            "area": "Gruenbuehl"
        }
    },
    {
        "name": "DEBW_LOD2_1003857",
        "description": "A building in GW area DEBW_LOD2_1003857",
        "properties": {
            "surface_gml_id": "DEBW_LOD2_1003857_0cb42578-c588-41a3-908e-bb786f739404",
            "building_gml_id": "DEBW_LOD2_1003857",
            "BuildingSurface_Hash": "2089920448",
            "individual_or_multiple_buildings": "individual",
            "area": "Gruenbuehl"
        }
    },
    {
        "name": "DEBW_LOD2_1003854",
        "description": "A building in GW area DEBW_LOD2_1003854",
        "properties": {
            "surface_gml_id": "DEBW_LOD2_1003854_b2c5184b-76f7-45ac-af3a-dc579268504a",
            "building_gml_id": "DEBW_LOD2_1003854",
            "BuildingSurface_Hash": "1989292908",
            "individual_or_multiple_buildings": "individual",
            "area": "Gruenbuehl"
        }
    },
    {
        "name": "DEBW_LOD2_214056",
        "description": "A building in GW area DEBW_LOD2_214056",
        "properties": {
            "surface_gml_id": "DEBW_LOD2_214056_70c3cb85-8075-4392-a87d-10f173dfe707",
            "building_gml_id": "DEBW_LOD2_214056",
            "BuildingSurface_Hash": "557876064",
            "individual_or_multiple_buildings": "individual",
            "area": "Gruenbuehl"
        }
    },
    {
        "name": "DEBW_LOD2_1003852",
        "description": "A building in GW area DEBW_LOD2_1003852",
        "properties": {
            "surface_gml_id": "DEBW_LOD2_1003852_5df0390c-a13f-41b4-9534-a3a1e7acc391",
            "building_gml_id": "DEBW_LOD2_1003852",
            "BuildingSurface_Hash": "1054611282",
            "individual_or_multiple_buildings": "individual",
            "area": "Gruenbuehl"
        }
    },
    {
        "name": "DEBW_LOD2_1003852",
        "description": "A building in GW area DEBW_LOD2_1003852",
        "properties": {
            "surface_gml_id": "DEBW_LOD2_1003852_b48c2e27-9069-44d5-b841-b1a53550da23",
            "building_gml_id": "DEBW_LOD2_1003852",
            "BuildingSurface_Hash": "2014740654",
            "individual_or_multiple_buildings": "individual",
            "area": "Gruenbuehl"
        }
    },
    {
        "name": "DEBW_LOD2_1003853",
        "description": "A building in GW area DEBW_LOD2_1003853",
        "properties": {
            "surface_gml_id": "DEBW_LOD2_1003853_101805be-1e16-4210-87c0-ca3f23484e83",
            "building_gml_id": "DEBW_LOD2_1003853",
            "BuildingSurface_Hash": "824819180",
            "individual_or_multiple_buildings": "individual",
            "area": "Gruenbuehl"
        }
    },
    {
        "name": "DEBW_LOD2_2942",
        "description": "A building in GW area DEBW_LOD2_2942",
        "properties": {
            "surface_gml_id": "DEBW_LOD2_2942_e9f5bc84-c899-428c-b1d3-cf6bff951e68",
            "building_gml_id": "DEBW_LOD2_2942",
            "BuildingSurface_Hash": "1516100351",
            "individual_or_multiple_buildings": "individual",
            "area": "Gruenbuehl"
        }
    },
    {
        "name": "DEBW_LOD2_1732",
        "description": "A building in GW area DEBW_LOD2_1732",
        "properties": {
            "surface_gml_id": "DEBW_LOD2_1732_2020fa2f-46e6-49ec-9b48-7c32a2715937",
            "building_gml_id": "DEBW_LOD2_1732",
            "BuildingSurface_Hash": "1528012258",
            "individual_or_multiple_buildings": "individual",
            "area": "Gruenbuehl"
        }
    },
    {
        "name": "DEBW_LOD2_1004493",
        "description": "A building in GW area DEBW_LOD2_1004493",
        "properties": {
            "surface_gml_id": "DEBW_LOD2_1004493_a94b5cdf-bcc7-4206-ba95-48e6468de702",
            "building_gml_id": "DEBW_LOD2_1004493",
            "BuildingSurface_Hash": "194591173",
            "individual_or_multiple_buildings": "individual",
            "area": "Gruenbuehl"
        }
    },
    {
        "name": "DEBW_LOD2_1004494",
        "description": "A building in GW area DEBW_LOD2_1004494",
        "properties": {
            "surface_gml_id": "DEBW_LOD2_1004494_1f86f388-809b-47ee-a6fd-6cda709cb1cf",
            "building_gml_id": "DEBW_LOD2_1004494",
            "BuildingSurface_Hash": "225729476",
            "individual_or_multiple_buildings": "individual",
            "area": "Gruenbuehl"
        }
    },
    {
        "name": "DEBW_LOD2_1004491",
        "description": "A building in GW area DEBW_LOD2_1004491",
        "properties": {
            "surface_gml_id": "DEBW_LOD2_1004491_4eae9cda-11d3-4412-a895-0b5974bdfde9",
            "building_gml_id": "DEBW_LOD2_1004491",
            "BuildingSurface_Hash": "242061760",
            "individual_or_multiple_buildings": "individual",
            "area": "Gruenbuehl"
        }
    },
    {
        "name": "DEBW_LOD2_1004492",
        "description": "A building in GW area DEBW_LOD2_1004492",
        "properties": {
            "surface_gml_id": "DEBW_LOD2_1004492_d3ca8633-d875-4ab3-b464-cab5c8d47824",
            "building_gml_id": "DEBW_LOD2_1004492",
            "BuildingSurface_Hash": "338829765",
            "individual_or_multiple_buildings": "individual",
            "area": "Gruenbuehl"
        }
    },
    {
        "name": "DEBW_LOD2_2947",
        "description": "A building in GW area DEBW_LOD2_2947",
        "properties": {
            "surface_gml_id": "DEBW_LOD2_2947_15787120-aa4e-4295-912b-1193cab196a0",
            "building_gml_id": "DEBW_LOD2_2947",
            "BuildingSurface_Hash": "40304160",
            "individual_or_multiple_buildings": "individual",
            "area": "Gruenbuehl"
        }
    },
    {
        "name": "DEBW_LOD2_1977",
        "description": "A building in GW area DEBW_LOD2_1977",
        "properties": {
            "surface_gml_id": "DEBW_LOD2_1977_fe2547c9-ef3d-4fd8-8c60-81091052cf84",
            "building_gml_id": "DEBW_LOD2_1977",
            "BuildingSurface_Hash": "693606029",
            "individual_or_multiple_buildings": "individual",
            "area": "Gruenbuehl"
        }
    },
    {
        "name": "DEBW_LOD2_2784",
        "description": "A building in GW area DEBW_LOD2_2784",
        "properties": {
            "surface_gml_id": "DEBW_LOD2_2784_ce6542e4-605d-4921-8e8f-8329cd649aed",
            "building_gml_id": "DEBW_LOD2_2784",
            "BuildingSurface_Hash": "862000413",
            "individual_or_multiple_buildings": "individual",
            "area": "Gruenbuehl"
        }
    },
    {
        "name": "DEBW_LOD2_3115",
        "description": "A building in GW area DEBW_LOD2_3115",
        "properties": {
            "surface_gml_id": "DEBW_LOD2_3115_ac0ab2b2-cc56-487b-8191-324ef6d3b636",
            "building_gml_id": "DEBW_LOD2_3115",
            "BuildingSurface_Hash": "426835059",
            "individual_or_multiple_buildings": "individual",
            "area": "Gruenbuehl"
        }
    },
    {
        "name": "DEBW_LOD2_3115",
        "description": "A building in GW area DEBW_LOD2_3115",
        "properties": {
            "surface_gml_id": "DEBW_LOD2_3115_13270c0f-62ce-4fbc-afbf-77ff9ad720ba",
            "building_gml_id": "DEBW_LOD2_3115",
            "BuildingSurface_Hash": "574397324",
            "individual_or_multiple_buildings": "individual",
            "area": "Gruenbuehl"
        }
    },
    {
        "name": "DEBW_LOD2_2146",
        "description": "A building in GW area DEBW_LOD2_2146",
        "properties": {
            "surface_gml_id": "DEBW_LOD2_2146_6b1414bb-7dff-41df-a942-eb03d0d466b7",
            "building_gml_id": "DEBW_LOD2_2146",
            "BuildingSurface_Hash": "2070253296",
            "individual_or_multiple_buildings": "individual",
            "area": "Gruenbuehl"
        }
    },
    {
        "name": "DEBW_LOD2_2146",
        "description": "A building in GW area DEBW_LOD2_2146",
        "properties": {
            "surface_gml_id": "DEBW_LOD2_2146_842ec0da-cde9-4b4f-8844-6644d5bec3a1",
            "building_gml_id": "DEBW_LOD2_2146",
            "BuildingSurface_Hash": "1493705976",
            "individual_or_multiple_buildings": "individual",
            "area": "Gruenbuehl"
        }
    },
    {
        "name": "DEBW_LOD2_2147",
        "description": "A building in GW area DEBW_LOD2_2147",
        "properties": {
            "surface_gml_id": "DEBW_LOD2_2147_1695725c-5fc1-45bb-a7dc-9ab0da106f1b",
            "building_gml_id": "DEBW_LOD2_2147",
            "BuildingSurface_Hash": "1925290464",
            "individual_or_multiple_buildings": "individual",
            "area": "Gruenbuehl"
        }
    },
    {
        "name": "DEBW_LOD2_2147",
        "description": "A building in GW area DEBW_LOD2_2147",
        "properties": {
            "surface_gml_id": "DEBW_LOD2_2147_6d548423-81b6-4e21-8fca-77c3d0e8d189",
            "building_gml_id": "DEBW_LOD2_2147",
            "BuildingSurface_Hash": "1445321263",
            "individual_or_multiple_buildings": "individual",
            "area": "Gruenbuehl"
        }
    },
    {
        "name": "DEBW_LOD2_1004495",
        "description": "A building in GW area DEBW_LOD2_1004495",
        "properties": {
            "surface_gml_id": "DEBW_LOD2_1004495_5a9ed9ca-7b49-472d-a94b-620fe58faff8",
            "building_gml_id": "DEBW_LOD2_1004495",
            "BuildingSurface_Hash": "694716798",
            "individual_or_multiple_buildings": "individual",
            "area": "Gruenbuehl"
        }
    },
    {
        "name": "DEBW_LOD2_3113",
        "description": "A building in GW area DEBW_LOD2_3113",
        "properties": {
            "surface_gml_id": "DEBW_LOD2_3113_9dd6b4ca-74c0-486b-8ea3-6f274da1204c",
            "building_gml_id": "DEBW_LOD2_3113",
            "BuildingSurface_Hash": "1813085659",
            "individual_or_multiple_buildings": "individual",
            "area": "Gruenbuehl"
        }
    },
    {
        "name": "DEBW_LOD2_3113",
        "description": "A building in GW area DEBW_LOD2_3113",
        "properties": {
            "surface_gml_id": "DEBW_LOD2_3113_1ae82ade-72d2-4f05-ab5a-cd80d1382bb6",
            "building_gml_id": "DEBW_LOD2_3113",
            "BuildingSurface_Hash": "1831741552",
            "individual_or_multiple_buildings": "individual",
            "area": "Gruenbuehl"
        }
    },
    {
        "name": "DEBW_LOD2_1004496",
        "description": "A building in GW area DEBW_LOD2_1004496",
        "properties": {
            "surface_gml_id": "DEBW_LOD2_1004496_784e415b-ade7-4c2b-a955-24ada1f22210",
            "building_gml_id": "DEBW_LOD2_1004496",
            "BuildingSurface_Hash": "815843421",
            "individual_or_multiple_buildings": "individual",
            "area": "Gruenbuehl"
        }
    },
    {
        "name": "DEBW_LOD2_1004496",
        "description": "A building in GW area DEBW_LOD2_1004496",
        "properties": {
            "surface_gml_id": "DEBW_LOD2_1004496_177e7ab9-f44b-40b6-94bc-a722aa227cbc",
            "building_gml_id": "DEBW_LOD2_1004496",
            "BuildingSurface_Hash": "1793634536",
            "individual_or_multiple_buildings": "individual",
            "area": "Gruenbuehl"
        }
    },
    {
        "name": "DEBW_LOD2_4289",
        "description": "A building in GW area DEBW_LOD2_4289",
        "properties": {
            "surface_gml_id": "DEBW_LOD2_4289_3c078fa6-6bd7-421b-962d-4f4a20e2ddec",
            "building_gml_id": "DEBW_LOD2_4289",
            "BuildingSurface_Hash": "1856647389",
            "individual_or_multiple_buildings": "individual",
            "area": "Gruenbuehl"
        }
    },
    {
        "name": "DEBW_LOD2_3491",
        "description": "A building in GW area DEBW_LOD2_3491",
        "properties": {
            "surface_gml_id": "DEBW_LOD2_3491_e5c5e732-7a3b-45b5-9ab0-1fb7f24b9248",
            "building_gml_id": "DEBW_LOD2_3491",
            "BuildingSurface_Hash": "1286565475",
            "individual_or_multiple_buildings": "individual",
            "area": "Gruenbuehl"
        }
    },
    {
        "name": "DEBW_LOD2_1003712",
        "description": "A building in GW area DEBW_LOD2_1003712",
        "properties": {
            "surface_gml_id": "DEBW_LOD2_1003712_74a714e3-9a1f-4947-b18d-c0ee1125fe66",
            "building_gml_id": "DEBW_LOD2_1003712",
            "BuildingSurface_Hash": "305024831",
            "individual_or_multiple_buildings": "individual",
            "area": "Gruenbuehl"
        }
    },
    {
        "name": "DEBW_LOD2_854",
        "description": "A building in GW area DEBW_LOD2_854",
        "properties": {
            "surface_gml_id": "DEBW_LOD2_854_a541af34-2aaf-496a-96a5-e1689f1a7e34",
            "building_gml_id": "DEBW_LOD2_854",
            "BuildingSurface_Hash": "217107811",
            "individual_or_multiple_buildings": "individual",
            "area": "Gruenbuehl"
        }
    },
    {
        "name": "DEBW_LOD2_854",
        "description": "A building in GW area DEBW_LOD2_854",
        "properties": {
            "surface_gml_id": "DEBW_LOD2_854_573e80a3-8edf-4acd-b5e3-537351f23484",
            "building_gml_id": "DEBW_LOD2_854",
            "BuildingSurface_Hash": "120177431",
            "individual_or_multiple_buildings": "individual",
            "area": "Gruenbuehl"
        }
    },
    {
        "name": "DEBW_LOD2_1505",
        "description": "A building in GW area DEBW_LOD2_1505",
        "properties": {
            "surface_gml_id": "DEBW_LOD2_1505_358941e2-c979-404e-8875-18b38f14cb96",
            "building_gml_id": "DEBW_LOD2_1505",
            "BuildingSurface_Hash": "1576978649",
            "individual_or_multiple_buildings": "individual",
            "area": "Gruenbuehl"
        }
    },
    {
        "name": "DEBW_LOD2_3484",
        "description": "A building in GW area DEBW_LOD2_3484",
        "properties": {
            "surface_gml_id": "DEBW_LOD2_3484_0d75b5ee-6ee2-411b-a0df-04ad5c69f355",
            "building_gml_id": "DEBW_LOD2_3484",
            "BuildingSurface_Hash": "764377834",
            "individual_or_multiple_buildings": "individual",
            "area": "Gruenbuehl"
        }
    },
    {
        "name": "DEBW_LOD2_3120",
        "description": "A building in GW area DEBW_LOD2_3120",
        "properties": {
            "surface_gml_id": "DEBW_LOD2_3120_63a44e22-dd98-456c-a7f4-84d727c61d3c",
            "building_gml_id": "DEBW_LOD2_3120",
            "BuildingSurface_Hash": "952383147",
            "individual_or_multiple_buildings": "individual",
            "area": "Gruenbuehl"
        }
    },
    {
        "name": "DEBW_LOD2_3522",
        "description": "A building in GW area DEBW_LOD2_3522",
        "properties": {
            "surface_gml_id": "DEBW_LOD2_3522_55f0201c-5711-4594-b587-3e76ea0b84fc",
            "building_gml_id": "DEBW_LOD2_3522",
            "BuildingSurface_Hash": "1514457433",
            "individual_or_multiple_buildings": "individual",
            "area": "Gruenbuehl"
        }
    },
    {
        "name": "DEBW_LOD2_1586",
        "description": "A building in GW area DEBW_LOD2_1586",
        "properties": {
            "surface_gml_id": "DEBW_LOD2_1586_525fa03e-c365-4802-8ef3-f549c0f7cb7a",
            "building_gml_id": "DEBW_LOD2_1586",
            "BuildingSurface_Hash": "2128813325",
            "individual_or_multiple_buildings": "individual",
            "area": "Gruenbuehl"
        }
    },
    {
        "name": "DEBW_LOD2_2158",
        "description": "A building in GW area DEBW_LOD2_2158",
        "properties": {
            "surface_gml_id": "DEBW_LOD2_2158_e94b8ca0-bf84-4435-a280-c07b77d0c982",
            "building_gml_id": "DEBW_LOD2_2158",
            "BuildingSurface_Hash": "541010859",
            "individual_or_multiple_buildings": "individual",
            "area": "Gruenbuehl"
        }
    },
    {
        "name": "DEBW_LOD2_3641",
        "description": "A building in GW area DEBW_LOD2_3641",
        "properties": {
            "surface_gml_id": "DEBW_LOD2_3641_ec0797f4-c999-4fb4-b248-1827c6e09a84",
            "building_gml_id": "DEBW_LOD2_3641",
            "BuildingSurface_Hash": "1069054486",
            "individual_or_multiple_buildings": "individual",
            "area": "Gruenbuehl"
        }
    },
    {
        "name": "DEBW_LOD2_3486",
        "description": "A building in GW area DEBW_LOD2_3486",
        "properties": {
            "surface_gml_id": "DEBW_LOD2_3486_435938bc-c5f7-443a-866d-bbf1c38c9337",
            "building_gml_id": "DEBW_LOD2_3486",
            "BuildingSurface_Hash": "286814231",
            "individual_or_multiple_buildings": "individual",
            "area": "Gruenbuehl"
        }
    },
    {
        "name": "DEBW_LOD2_1003706",
        "description": "A building in GW area DEBW_LOD2_1003706",
        "properties": {
            "surface_gml_id": "DEBW_LOD2_1003706_e04e5be9-53e0-4d3d-b21c-f585df7f7ad6",
            "building_gml_id": "DEBW_LOD2_1003706",
            "BuildingSurface_Hash": "57299320",
            "individual_or_multiple_buildings": "individual",
            "area": "Gruenbuehl"
        }
    },
    {
        "name": "DEBW_LOD2_1003707",
        "description": "A building in GW area DEBW_LOD2_1003707",
        "properties": {
            "surface_gml_id": "DEBW_LOD2_1003707_8400ebb7-bf00-49d8-ab10-8981bd1544cc",
            "building_gml_id": "DEBW_LOD2_1003707",
            "BuildingSurface_Hash": "760180723",
            "individual_or_multiple_buildings": "individual",
            "area": "Gruenbuehl"
        }
    },
    {
        "name": "DEBW_LOD2_1003704",
        "description": "A building in GW area DEBW_LOD2_1003704",
        "properties": {
            "surface_gml_id": "DEBW_LOD2_1003704_c52eed46-3781-42c5-8808-b3082c3115d1",
            "building_gml_id": "DEBW_LOD2_1003704",
            "BuildingSurface_Hash": "1424925884",
            "individual_or_multiple_buildings": "individual",
            "area": "Gruenbuehl"
        }
    },
    {
        "name": "DEBW_LOD2_1003705",
        "description": "A building in GW area DEBW_LOD2_1003705",
        "properties": {
            "surface_gml_id": "DEBW_LOD2_1003705_6d9889db-5e5e-43b5-aec9-d8675f42bf7a",
            "building_gml_id": "DEBW_LOD2_1003705",
            "BuildingSurface_Hash": "1941737612",
            "individual_or_multiple_buildings": "individual",
            "area": "Gruenbuehl"
        }
    },
    {
        "name": "DEBW_LOD2_4075",
        "description": "A building in GW area DEBW_LOD2_4075",
        "properties": {
            "surface_gml_id": "DEBW_LOD2_4075_0b739a3d-4201-470c-8020-d74a7f84f96c",
            "building_gml_id": "DEBW_LOD2_4075",
            "BuildingSurface_Hash": "1543692045",
            "individual_or_multiple_buildings": "individual",
            "area": "Gruenbuehl"
        }
    },
    {
        "name": "DEBW_LOD2_219976",
        "description": "A building in GW area DEBW_LOD2_219976",
        "properties": {
            "surface_gml_id": "DEBW_LOD2_219976_67a70074-079c-4e59-8859-6e168d3b7ff6",
            "building_gml_id": "DEBW_LOD2_219976",
            "BuildingSurface_Hash": "2141822074",
            "individual_or_multiple_buildings": "individual",
            "area": "Gruenbuehl"
        }
    },
    {
        "name": "DEBW_LOD2_1003708",
        "description": "A building in GW area DEBW_LOD2_1003708",
        "properties": {
            "surface_gml_id": "DEBW_LOD2_1003708_45e96e1c-667f-4812-9cfb-fe1fdf8114f1",
            "building_gml_id": "DEBW_LOD2_1003708",
            "BuildingSurface_Hash": "2126371207",
            "individual_or_multiple_buildings": "individual",
            "area": "Gruenbuehl"
        }
    },
    {
        "name": "DEBW_LOD2_1003709",
        "description": "A building in GW area DEBW_LOD2_1003709",
        "properties": {
            "surface_gml_id": "DEBW_LOD2_1003709_f6af711c-50f6-4b97-acf2-dad0e25fdf14",
            "building_gml_id": "DEBW_LOD2_1003709",
            "BuildingSurface_Hash": "330014476",
            "individual_or_multiple_buildings": "individual",
            "area": "Gruenbuehl"
        }
    },
    {
        "name": "DEBW_LOD2_1754",
        "description": "A building in GW area DEBW_LOD2_1754",
        "properties": {
            "surface_gml_id": "DEBW_LOD2_1754_b6fcc26d-3dd6-4bc2-852a-1014b5e71473",
            "building_gml_id": "DEBW_LOD2_1754",
            "BuildingSurface_Hash": "618634553",
            "individual_or_multiple_buildings": "individual",
            "area": "Gruenbuehl"
        }
    },
    {
        "name": "DEBW_LOD2_2720",
        "description": "A building in GW area DEBW_LOD2_2720",
        "properties": {
            "surface_gml_id": "DEBW_LOD2_2720_d1dfd812-5f80-4b28-800d-3a31a4b76b8c",
            "building_gml_id": "DEBW_LOD2_2720",
            "BuildingSurface_Hash": "640940187",
            "individual_or_multiple_buildings": "individual",
            "area": "Gruenbuehl"
        }
    },
    {
        "name": "DEBW_LOD2_2720",
        "description": "A building in GW area DEBW_LOD2_2720",
        "properties": {
            "surface_gml_id": "DEBW_LOD2_2720_86a75f5f-a4a0-4f2a-b212-7bfa106d2c74",
            "building_gml_id": "DEBW_LOD2_2720",
            "BuildingSurface_Hash": "211390635",
            "individual_or_multiple_buildings": "individual",
            "area": "Gruenbuehl"
        }
    },
    {
        "name": "DEBW_LOD2_4469",
        "description": "A building in GW area DEBW_LOD2_4469",
        "properties": {
            "surface_gml_id": "DEBW_LOD2_4469_0d79a443-be0f-4993-9e66-5c0a1992df67",
            "building_gml_id": "DEBW_LOD2_4469",
            "BuildingSurface_Hash": "1602273511",
            "individual_or_multiple_buildings": "individual",
            "area": "Gruenbuehl"
        }
    },
    {
        "name": "DEBW_LOD2_3418",
        "description": "A building in GW area DEBW_LOD2_3418",
        "properties": {
            "surface_gml_id": "DEBW_LOD2_3418_93f9660e-d48d-4cec-b789-11e9c15d03ee",
            "building_gml_id": "DEBW_LOD2_3418",
            "BuildingSurface_Hash": "29025894",
            "individual_or_multiple_buildings": "individual",
            "area": "Gruenbuehl"
        }
    },
    {
        "name": "DEBW_LOD2_1003666",
        "description": "A building in GW area DEBW_LOD2_1003666",
        "properties": {
            "surface_gml_id": "DEBW_LOD2_1003666_748de43c-6f1e-45a1-afef-43738c405ac1",
            "building_gml_id": "DEBW_LOD2_1003666",
            "BuildingSurface_Hash": "2032446338",
            "individual_or_multiple_buildings": "individual",
            "area": "Gruenbuehl"
        }
    },
    {
        "name": "DEBW_LOD2_2960",
        "description": "A building in GW area DEBW_LOD2_2960",
        "properties": {
            "surface_gml_id": "DEBW_LOD2_2960_249563bc-81f5-450c-8f75-e9b6584fcbcf",
            "building_gml_id": "DEBW_LOD2_2960",
            "BuildingSurface_Hash": "1177403564",
            "individual_or_multiple_buildings": "individual",
            "area": "Gruenbuehl"
        }
    },
    {
        "name": "DEBW_LOD2_1002174",
        "description": "A building in GW area DEBW_LOD2_1002174",
        "properties": {
            "surface_gml_id": "DEBW_LOD2_1002174_493ce019-ef71-46b9-ba83-4eccc7fccbc5",
            "building_gml_id": "DEBW_LOD2_1002174",
            "BuildingSurface_Hash": "1575422177",
            "individual_or_multiple_buildings": "individual",
            "area": "Gruenbuehl"
        }
    },
    {
        "name": "DEBW_LOD2_1002174",
        "description": "A building in GW area DEBW_LOD2_1002174",
        "properties": {
            "surface_gml_id": "DEBW_LOD2_1002174_7edf9d6e-9045-4e23-bd7d-5f7e5e723bb1",
            "building_gml_id": "DEBW_LOD2_1002174",
            "BuildingSurface_Hash": "243098866",
            "individual_or_multiple_buildings": "individual",
            "area": "Gruenbuehl"
        }
    },
    {
        "name": "DEBW_LOD2_1002174",
        "description": "A building in GW area DEBW_LOD2_1002174",
        "properties": {
            "surface_gml_id": "DEBW_LOD2_1002174_c38cc48d-636b-45f6-8166-2610561d6251",
            "building_gml_id": "DEBW_LOD2_1002174",
            "BuildingSurface_Hash": "1632420802",
            "individual_or_multiple_buildings": "individual",
            "area": "Gruenbuehl"
        }
    },
    {
        "name": "DEBW_LOD2_2200",
        "description": "A building in GW area DEBW_LOD2_2200",
        "properties": {
            "surface_gml_id": "DEBW_LOD2_2200_99cfb113-5a2c-4587-91b1-e22909efcaf0",
            "building_gml_id": "DEBW_LOD2_2200",
            "BuildingSurface_Hash": "257669778",
            "individual_or_multiple_buildings": "individual",
            "area": "Gruenbuehl"
        }
    },
    {
        "name": "DEBW_LOD2_2200",
        "description": "A building in GW area DEBW_LOD2_2200",
        "properties": {
            "surface_gml_id": "DEBW_LOD2_2200_c06a066b-8335-4c5d-a7f8-76ac5dbb488d",
            "building_gml_id": "DEBW_LOD2_2200",
            "BuildingSurface_Hash": "438914038",
            "individual_or_multiple_buildings": "individual",
            "area": "Gruenbuehl"
        }
    },
    {
        "name": "DEBW_LOD2_1003812",
        "description": "A building in GW area DEBW_LOD2_1003812",
        "properties": {
            "surface_gml_id": "DEBW_LOD2_1003812_4408fb58-2cef-4fe1-94b0-a17457a4b457",
            "building_gml_id": "DEBW_LOD2_1003812",
            "BuildingSurface_Hash": "539938319",
            "individual_or_multiple_buildings": "individual",
            "area": "Gruenbuehl"
        }
    },
    {
        "name": "DEBW_LOD2_1408",
        "description": "A building in GW area DEBW_LOD2_1408",
        "properties": {
            "surface_gml_id": "DEBW_LOD2_1408_a2c512cb-fc53-4b0b-9781-ea925d45069d",
            "building_gml_id": "DEBW_LOD2_1408",
            "BuildingSurface_Hash": "1926843114",
            "individual_or_multiple_buildings": "individual",
            "area": "Gruenbuehl"
        }
    },
    {
        "name": "DEBW_LOD2_1766",
        "description": "A building in GW area DEBW_LOD2_1766",
        "properties": {
            "surface_gml_id": "DEBW_LOD2_1766_9108e6f0-1d08-4dd5-8b9d-ced2c5f38da2",
            "building_gml_id": "DEBW_LOD2_1766",
            "BuildingSurface_Hash": "1309697091",
            "individual_or_multiple_buildings": "individual",
            "area": "Gruenbuehl"
        }
    },
    {
        "name": "DEBW_LOD2_223489",
        "description": "A building in GW area DEBW_LOD2_223489",
        "properties": {
            "surface_gml_id": "DEBW_LOD2_223489_b5d40a68-ed2b-40bd-9ffa-2a9760a2d6a4",
            "building_gml_id": "DEBW_LOD2_223489",
            "BuildingSurface_Hash": "916371323",
            "individual_or_multiple_buildings": "individual",
            "area": "Gruenbuehl"
        }
    },
    {
        "name": "DEBW_LOD2_1249",
        "description": "A building in GW area DEBW_LOD2_1249",
        "properties": {
            "surface_gml_id": "DEBW_LOD2_1249_5dcf410a-0bbd-461d-9e62-fe69a62f34c6",
            "building_gml_id": "DEBW_LOD2_1249",
            "BuildingSurface_Hash": "551523072",
            "individual_or_multiple_buildings": "individual",
            "area": "Gruenbuehl"
        }
    },
    {
        "name": "DEBW_LOD2_1249",
        "description": "A building in GW area DEBW_LOD2_1249",
        "properties": {
            "surface_gml_id": "DEBW_LOD2_1249_03160e61-a480-4611-9b2c-cb65180cf3a0",
            "building_gml_id": "DEBW_LOD2_1249",
            "BuildingSurface_Hash": "339128856",
            "individual_or_multiple_buildings": "individual",
            "area": "Gruenbuehl"
        }
    },
    {
        "name": "DEBW_LOD2_673",
        "description": "A building in GW area DEBW_LOD2_673",
        "properties": {
            "surface_gml_id": "DEBW_LOD2_673_120d04c6-dab7-4587-84c0-1e1da6a5122c",
            "building_gml_id": "DEBW_LOD2_673",
            "BuildingSurface_Hash": "14124725",
            "individual_or_multiple_buildings": "individual",
            "area": "Gruenbuehl"
        }
    },
    {
        "name": "DEBW_LOD2_3660",
        "description": "A building in GW area DEBW_LOD2_3660",
        "properties": {
            "surface_gml_id": "DEBW_LOD2_3660_ad80d69d-21e0-4c4f-80a8-5ac39d3adcca",
            "building_gml_id": "DEBW_LOD2_3660",
            "BuildingSurface_Hash": "1910911541",
            "individual_or_multiple_buildings": "individual",
            "area": "Gruenbuehl"
        }
    },
    {
        "name": "DEBW_LOD2_1004502",
        "description": "A building in GW area DEBW_LOD2_1004502",
        "properties": {
            "surface_gml_id": "DEBW_LOD2_1004502_960f3573-bc01-4f17-a43f-7ce720275c8e",
            "building_gml_id": "DEBW_LOD2_1004502",
            "BuildingSurface_Hash": "367436509",
            "individual_or_multiple_buildings": "individual",
            "area": "Gruenbuehl"
        }
    },
    {
        "name": "DEBW_LOD2_1003652",
        "description": "A building in GW area DEBW_LOD2_1003652",
        "properties": {
            "surface_gml_id": "DEBW_LOD2_1003652_9a989523-7f6a-410c-a487-d28d6c6676d1",
            "building_gml_id": "DEBW_LOD2_1003652",
            "BuildingSurface_Hash": "1373251222",
            "individual_or_multiple_buildings": "individual",
            "area": "Gruenbuehl"
        }
    },
    {
        "name": "DEBW_LOD2_4077",
        "description": "A building in GW area DEBW_LOD2_4077",
        "properties": {
            "surface_gml_id": "DEBW_LOD2_4077_25d92862-d61f-445b-928d-d86d8b52650e",
            "building_gml_id": "DEBW_LOD2_4077",
            "BuildingSurface_Hash": "1232993775",
            "individual_or_multiple_buildings": "individual",
            "area": "Gruenbuehl"
        }
    },
    {
        "name": "DEBW_LOD2_1003653",
        "description": "A building in GW area DEBW_LOD2_1003653",
        "properties": {
            "surface_gml_id": "DEBW_LOD2_1003653_fd8357eb-b054-499c-83de-9e7ad3151b95",
            "building_gml_id": "DEBW_LOD2_1003653",
            "BuildingSurface_Hash": "661961301",
            "individual_or_multiple_buildings": "individual",
            "area": "Gruenbuehl"
        }
    },
    {
        "name": "DEBW_LOD2_4076",
        "description": "A building in GW area DEBW_LOD2_4076",
        "properties": {
            "surface_gml_id": "DEBW_LOD2_4076_850f71e0-daef-49a6-a0a3-0cd8ad9634f6",
            "building_gml_id": "DEBW_LOD2_4076",
            "BuildingSurface_Hash": "1752747117",
            "individual_or_multiple_buildings": "individual",
            "area": "Gruenbuehl"
        }
    },
    {
        "name": "DEBW_LOD2_4076",
        "description": "A building in GW area DEBW_LOD2_4076",
        "properties": {
            "surface_gml_id": "DEBW_LOD2_4076_5eb9a5ed-af80-47c8-855c-808d4b6394c4",
            "building_gml_id": "DEBW_LOD2_4076",
            "BuildingSurface_Hash": "500468670",
            "individual_or_multiple_buildings": "individual",
            "area": "Gruenbuehl"
        }
    },
    {
        "name": "DEBW_LOD2_4076",
        "description": "A building in GW area DEBW_LOD2_4076",
        "properties": {
            "surface_gml_id": "DEBW_LOD2_4076_bf6c60ef-c4a3-4801-afa1-788ef3b1bff8",
            "building_gml_id": "DEBW_LOD2_4076",
            "BuildingSurface_Hash": "1117281262",
            "individual_or_multiple_buildings": "individual",
            "area": "Gruenbuehl"
        }
    },
    {
        "name": "DEBW_LOD2_1003650",
        "description": "A building in GW area DEBW_LOD2_1003650",
        "properties": {
            "surface_gml_id": "DEBW_LOD2_1003650_f3c9a1d3-eaf3-4ddb-830d-d03cde9b4a9b",
            "building_gml_id": "DEBW_LOD2_1003650",
            "BuildingSurface_Hash": "1933769062",
            "individual_or_multiple_buildings": "individual",
            "area": "Gruenbuehl"
        }
    },
    {
        "name": "DEBW_LOD2_4237",
        "description": "A building in GW area DEBW_LOD2_4237",
        "properties": {
            "surface_gml_id": "DEBW_LOD2_4237_8927c58c-d1fb-48e6-9751-90da0f317107",
            "building_gml_id": "DEBW_LOD2_4237",
            "BuildingSurface_Hash": "1437915351",
            "individual_or_multiple_buildings": "individual",
            "area": "Gruenbuehl"
        }
    },
    {
        "name": "DEBW_LOD2_4237",
        "description": "A building in GW area DEBW_LOD2_4237",
        "properties": {
            "surface_gml_id": "DEBW_LOD2_4237_ba2e3052-77f0-4bef-8c7d-3f7463a31edd",
            "building_gml_id": "DEBW_LOD2_4237",
            "BuildingSurface_Hash": "2029792215",
            "individual_or_multiple_buildings": "individual",
            "area": "Gruenbuehl"
        }
    },
    {
        "name": "DEBW_LOD2_2212",
        "description": "A building in GW area DEBW_LOD2_2212",
        "properties": {
            "surface_gml_id": "DEBW_LOD2_2212_a22557d6-f839-4241-a176-b57f3027efca",
            "building_gml_id": "DEBW_LOD2_2212",
            "BuildingSurface_Hash": "1404681698",
            "individual_or_multiple_buildings": "individual",
            "area": "Gruenbuehl"
        }
    },
    {
        "name": "DEBW_LOD2_2212",
        "description": "A building in GW area DEBW_LOD2_2212",
        "properties": {
            "surface_gml_id": "DEBW_LOD2_2212_03139300-f155-4a95-a4f7-bcbc1e6afa34",
            "building_gml_id": "DEBW_LOD2_2212",
            "BuildingSurface_Hash": "660245123",
            "individual_or_multiple_buildings": "individual",
            "area": "Gruenbuehl"
        }
    },
    {
        "name": "DEBW_LOD2_1003651",
        "description": "A building in GW area DEBW_LOD2_1003651",
        "properties": {
            "surface_gml_id": "DEBW_LOD2_1003651_04007d32-75ca-4991-ac78-ab27019bad70",
            "building_gml_id": "DEBW_LOD2_1003651",
            "BuildingSurface_Hash": "2046148534",
            "individual_or_multiple_buildings": "individual",
            "area": "Gruenbuehl"
        }
    },
    {
        "name": "DEBW_LOD2_4236",
        "description": "A building in GW area DEBW_LOD2_4236",
        "properties": {
            "surface_gml_id": "DEBW_LOD2_4236_407c6aee-cba2-46e6-9b1e-a4a55b403909",
            "building_gml_id": "DEBW_LOD2_4236",
            "BuildingSurface_Hash": "1793193488",
            "individual_or_multiple_buildings": "individual",
            "area": "Gruenbuehl"
        }
    },
    {
        "name": "DEBW_LOD2_4236",
        "description": "A building in GW area DEBW_LOD2_4236",
        "properties": {
            "surface_gml_id": "DEBW_LOD2_4236_bfdd842b-aadb-46ea-ba97-f7c4043d3aa5",
            "building_gml_id": "DEBW_LOD2_4236",
            "BuildingSurface_Hash": "1999944836",
            "individual_or_multiple_buildings": "individual",
            "area": "Gruenbuehl"
        }
    },
    {
        "name": "DEBW_LOD2_1003649",
        "description": "A building in GW area DEBW_LOD2_1003649",
        "properties": {
            "surface_gml_id": "DEBW_LOD2_1003649_dce731ac-8a26-487c-94ab-0ee72a402800",
            "building_gml_id": "DEBW_LOD2_1003649",
            "BuildingSurface_Hash": "1226380994",
            "individual_or_multiple_buildings": "individual",
            "area": "Gruenbuehl"
        }
    },
    {
        "name": "DEBW_LOD2_1003647",
        "description": "A building in GW area DEBW_LOD2_1003647",
        "properties": {
            "surface_gml_id": "DEBW_LOD2_1003647_0d7a3c2b-36e4-4e22-923e-a4dfd1ab960c",
            "building_gml_id": "DEBW_LOD2_1003647",
            "BuildingSurface_Hash": "2052035185",
            "individual_or_multiple_buildings": "individual",
            "area": "Gruenbuehl"
        }
    },
    {
        "name": "DEBW_LOD2_4251",
        "description": "A building in GW area DEBW_LOD2_4251",
        "properties": {
            "surface_gml_id": "DEBW_LOD2_4251_3b00f8a3-e0e6-4484-b90f-c4c12819e6ba",
            "building_gml_id": "DEBW_LOD2_4251",
            "BuildingSurface_Hash": "1828369773",
            "individual_or_multiple_buildings": "individual",
            "area": "Gruenbuehl"
        }
    },
    {
        "name": "DEBW_LOD2_1003648",
        "description": "A building in GW area DEBW_LOD2_1003648",
        "properties": {
            "surface_gml_id": "DEBW_LOD2_1003648_fcf174c6-6be0-49d3-b4f2-bbbaefe26e5b",
            "building_gml_id": "DEBW_LOD2_1003648",
            "BuildingSurface_Hash": "787570902",
            "individual_or_multiple_buildings": "individual",
            "area": "Gruenbuehl"
        }
    },
    {
        "name": "DEBW_LOD2_4250",
        "description": "A building in GW area DEBW_LOD2_4250",
        "properties": {
            "surface_gml_id": "DEBW_LOD2_4250_3ab287c3-2f77-4e85-a96a-becfc49dfced",
            "building_gml_id": "DEBW_LOD2_4250",
            "BuildingSurface_Hash": "1348742293",
            "individual_or_multiple_buildings": "individual",
            "area": "Gruenbuehl"
        }
    },
    {
        "name": "DEBW_LOD2_1003646",
        "description": "A building in GW area DEBW_LOD2_1003646",
        "properties": {
            "surface_gml_id": "DEBW_LOD2_1003646_adefab48-f748-4d91-9004-cdf476a3271a",
            "building_gml_id": "DEBW_LOD2_1003646",
            "BuildingSurface_Hash": "1525997032",
            "individual_or_multiple_buildings": "individual",
            "area": "Gruenbuehl"
        }
    },
    {
        "name": "DEBW_LOD2_2623",
        "description": "A building in GW area DEBW_LOD2_2623",
        "properties": {
            "surface_gml_id": "DEBW_LOD2_2623_58818ad5-e595-446a-b669-ed961f92b7cb",
            "building_gml_id": "DEBW_LOD2_2623",
            "BuildingSurface_Hash": "676980541",
            "individual_or_multiple_buildings": "individual",
            "area": "Gruenbuehl"
        }
    },
    {
        "name": "DEBW_LOD2_2502",
        "description": "A building in GW area DEBW_LOD2_2502",
        "properties": {
            "surface_gml_id": "DEBW_LOD2_2502_a46af7d3-b670-4f47-adca-31be692a4c00",
            "building_gml_id": "DEBW_LOD2_2502",
            "BuildingSurface_Hash": "117061738",
            "individual_or_multiple_buildings": "individual",
            "area": "Gruenbuehl"
        }
    },
    {
        "name": "DEBW_LOD2_3556",
        "description": "A building in GW area DEBW_LOD2_3556",
        "properties": {
            "surface_gml_id": "DEBW_LOD2_3556_258bb35a-7bb7-4da8-8d4b-07101055a60f",
            "building_gml_id": "DEBW_LOD2_3556",
            "BuildingSurface_Hash": "1256070400",
            "individual_or_multiple_buildings": "individual",
            "area": "Gruenbuehl"
        }
    },
    {
        "name": "DEBW_LOD2_2869",
        "description": "A building in GW area DEBW_LOD2_2869",
        "properties": {
            "surface_gml_id": "DEBW_LOD2_2869_85179d0a-9b03-4897-87cf-d340b5d7b990",
            "building_gml_id": "DEBW_LOD2_2869",
            "BuildingSurface_Hash": "124471876",
            "individual_or_multiple_buildings": "individual",
            "area": "Gruenbuehl"
        }
    },
    {
        "name": "DEBW_LOD2_2229",
        "description": "A building in GW area DEBW_LOD2_2229",
        "properties": {
            "surface_gml_id": "DEBW_LOD2_2229_5a32704f-3ce3-4513-95dd-f1118dede902",
            "building_gml_id": "DEBW_LOD2_2229",
            "BuildingSurface_Hash": "490353527",
            "individual_or_multiple_buildings": "individual",
            "area": "Gruenbuehl"
        }
    },
    {
        "name": "DEBW_LOD2_4486",
        "description": "A building in GW area DEBW_LOD2_4486",
        "properties": {
            "surface_gml_id": "DEBW_LOD2_4486_299e4800-4e53-481a-a359-86fbc5a7ecb0",
            "building_gml_id": "DEBW_LOD2_4486",
            "BuildingSurface_Hash": "153451689",
            "individual_or_multiple_buildings": "individual",
            "area": "Gruenbuehl"
        }
    },
    {
        "name": "DEBW_LOD2_2065",
        "description": "A building in GW area DEBW_LOD2_2065",
        "properties": {
            "surface_gml_id": "DEBW_LOD2_2065_706b3132-1433-4f35-8c6a-a0a0cf0a7508",
            "building_gml_id": "DEBW_LOD2_2065",
            "BuildingSurface_Hash": "402998913",
            "individual_or_multiple_buildings": "individual",
            "area": "Gruenbuehl"
        }
    },
    {
        "name": "DEBW_LOD2_4244",
        "description": "A building in GW area DEBW_LOD2_4244",
        "properties": {
            "surface_gml_id": "DEBW_LOD2_4244_de3ec728-29b8-4da0-8280-45bcfd68598f",
            "building_gml_id": "DEBW_LOD2_4244",
            "BuildingSurface_Hash": "1468674770",
            "individual_or_multiple_buildings": "individual",
            "area": "Gruenbuehl"
        }
    },
    {
        "name": "DEBW_LOD2_4001",
        "description": "A building in GW area DEBW_LOD2_4001",
        "properties": {
            "surface_gml_id": "DEBW_LOD2_4001_8c309606-e07b-4167-807e-4088b5c0df0a",
            "building_gml_id": "DEBW_LOD2_4001",
            "BuildingSurface_Hash": "178426871",
            "individual_or_multiple_buildings": "individual",
            "area": "Gruenbuehl"
        }
    },
    {
        "name": "DEBW_LOD2_4001",
        "description": "A building in GW area DEBW_LOD2_4001",
        "properties": {
            "surface_gml_id": "DEBW_LOD2_4001_dcb18004-0165-40cd-9912-e0921d118a38",
            "building_gml_id": "DEBW_LOD2_4001",
            "BuildingSurface_Hash": "877917917",
            "individual_or_multiple_buildings": "individual",
            "area": "Gruenbuehl"
        }
    },
    {
        "name": "DEBW_LOD2_1007722",
        "description": "A building in GW area DEBW_LOD2_1007722",
        "properties": {
            "surface_gml_id": "DEBW_LOD2_1007722_0ced6918-c7a4-4c51-8e85-7b9b37fa0501",
            "building_gml_id": "DEBW_LOD2_1007722",
            "BuildingSurface_Hash": "868663465",
            "individual_or_multiple_buildings": "individual",
            "area": "Gruenbuehl"
        }
    },
    {
        "name": "DEBW_LOD2_4120",
        "description": "A building in GW area DEBW_LOD2_4120",
        "properties": {
            "surface_gml_id": "DEBW_LOD2_4120_c9821d01-400c-488a-9bcb-a719f421bd07",
            "building_gml_id": "DEBW_LOD2_4120",
            "BuildingSurface_Hash": "1713938206",
            "individual_or_multiple_buildings": "individual",
            "area": "Gruenbuehl"
        }
    },
    {
        "name": "DEBW_LOD2_1007720",
        "description": "A building in GW area DEBW_LOD2_1007720",
        "properties": {
            "surface_gml_id": "DEBW_LOD2_1007720_d96b7652-0fa4-460c-a9cf-7fcc6e6e945a",
            "building_gml_id": "DEBW_LOD2_1007720",
            "BuildingSurface_Hash": "598160711",
            "individual_or_multiple_buildings": "individual",
            "area": "Gruenbuehl"
        }
    },
    {
        "name": "DEBW_LOD2_4124",
        "description": "A building in GW area DEBW_LOD2_4124",
        "properties": {
            "surface_gml_id": "DEBW_LOD2_4124_2b35ce6f-ebbb-4fab-ab5f-4c04f0828174",
            "building_gml_id": "DEBW_LOD2_4124",
            "BuildingSurface_Hash": "957738908",
            "individual_or_multiple_buildings": "individual",
            "area": "Gruenbuehl"
        }
    },
    {
        "name": "DEBW_LOD2_4245",
        "description": "A building in GW area DEBW_LOD2_4245",
        "properties": {
            "surface_gml_id": "DEBW_LOD2_4245_0009943e-1856-4038-97b9-8e22802358c5",
            "building_gml_id": "DEBW_LOD2_4245",
            "BuildingSurface_Hash": "370426106",
            "individual_or_multiple_buildings": "individual",
            "area": "Gruenbuehl"
        }
    }
]